%YAML 1.1
%TAG !u! tag:unity3d.com,2011:
--- !u!21 &2100000
Material:
  serializedVersion: 6
  m_ObjectHideFlags: 0
  m_CorrespondingSourceObject: {fileID: 0}
  m_PrefabInstance: {fileID: 0}
  m_PrefabAsset: {fileID: 0}
  m_Name: GlowFrameRight
  m_Shader: {fileID: 4800000, guid: b8d5ff58b4f7630448df5dd0beda1d5b, type: 3}
  m_ShaderKeywords: GLOWEFFECT_MULTIPLY_COLOR_OFF GLOWEFFECT_USE_GLOWCOLOR GLOWEFFECT_USE_GLOWTEX_OFF
    GLOWEFFECT_USE_MAINTEX_OFF GLOWEFFECT_USE_VERTEXCOLOR_OFF
  m_LightmapFlags: 4
  m_EnableInstancingVariants: 0
  m_DoubleSidedGI: 0
  m_CustomRenderQueue: -1
  stringTagMap: {}
  disabledShaderPasses: []
  m_SavedProperties:
    serializedVersion: 3
    m_TexEnvs:
    - _GlowTex:
        m_Texture: {fileID: 2800000, guid: c8399a4ffb18d634e8263124141308cc, type: 3}
        m_Scale: {x: 1, y: 1}
        m_Offset: {x: 0, y: 0}
    - _MainTex:
        m_Texture: {fileID: 2800000, guid: c8399a4ffb18d634e8263124141308cc, type: 3}
        m_Scale: {x: 1, y: 1}
        m_Offset: {x: 0, y: 0}
    m_Floats: []
    m_Colors:
    - _Color: {r: 1, g: 1, b: 1, a: 1}
    - _GlowColor: {r: 0, g: 0, b: 1, a: 1}
    - _GlowColorMult: {r: 1, g: 1, b: 1, a: 1}
    - _MainColor: {r: 0, g: 0, b: 0, a: 0}
